866801 611871 525
78102 111585 354
108479 633382 509
739834 437405 509
504524 752021 509
254984 801617 509
921228 198169 525
752773 463723 509
824706 345243 509
136590 908242 525
254982 715990 509
689706 740249 504
462849 412045 444
183080 558647 470
794436 890550 525
545037 98976 470
479438 144178 449
63012 997292 525
845047 155730 525
488000 589363 470
260018 217009 443
145534 597223 470
62167 61733 317
2672 69630 340
420913 831219 509
905993 566974 525
106919 705936 509
160084 541143 470
550818 280459 470
219606 845834 525
73826 468406 449
472739 890729 525
500887 779135 509
500021 129308 449
130823 969711 525
602623 84995 470
117443 816600 509
966790 187331 525
734868 951706 525
848701 865190 419
758226 488271 509
358725 958277 525
908909 70742 525
694252 275639 509
742411 363987 509
93088 179076 383
979425 386346 525
782078 158064 509
457527 997539 525
783424 207239 509
865724 136712 525
447009 688169 509
207246 719436 509
206908 583859 470
107496 141179 349
952573 166156 525
135315 541322 470
630152 817687 504
896522 935818 476
985632 574019 525
587148 146050 470
117216 833596 509
210220 650607 509
444039 936748 525
627554 854136 525
888569 389253 525
678371 498343 509
277221 952055 525
969692 165248 525
5774 329799 443
472666 423289 444
916631 779521 525
144563 701494 509
975707 368020 525
730239 924283 525
133908 468821 449
593124 794817 509
239917 734415 509
621273 488858 470
379888 622816 470
187911 8710 383
762001 257361 509
652344 648195 385
170401 585991 470
899732 43067 525
498854 111398 449
744828 218635 509
236457 588601 470
183043 423072 449
105651 192431 383
584789 830706 509
936283 602621 525
828939 616745 509
110903 133687 349
972601 616918 525
409167 378796 436
572286 737700 509
104069 975031 525
850279 380067 525
330283 359976 441
686522 384038 509
803566 493380 509
449269 995717 525
539783 650834 509
196616 511038 449
323323 407884 441
855540 269782 525
715341 21318 509
534178 725086 509
574696 140457 470
556047 212185 470
9811 533469 470
308795 757513 509
977430 911680 507
713336 34685 509
64591 437901 449
26179 221244 386
221090 230444 368
424449 125434 449
791933 832491 468
406171 956651 525
214570 640341 509
38706 578594 470
885233 52560 525
172683 114841 383
136337 978593 525
17726 765888 509
678540 608942 509
360533 621412 470
355646 384251 423
306192 287180 389
796753 527262 509
637198 536951 509
133330 867522 525
587492 381485 470
386620 987396 525
336149 48254 443
953464 78301 525
846703 496657 525
5584 110355 354
765445 908269 525
361381 299160 441
848493 121639 525
807715 890295 525
434177 251781 449
511344 851968 525
527692 334959 470
467785 390917 449
368662 131582 443
830769 410383 509
318279 956964 525
327565 323065 384
451770 96253 449
161357 479084 449
347253 236618 441
611955 275997 470
585139 599251 403
924959 267363 525
836271 962509 525
697695 811458 504
154261 294487 443
392646 792700 509
491045 377169 449
866094 952019 507
610962 414587 470
33064 316136 443
64882 808524 509
512329 279204 470
273365 178785 443
602717 168838 470
668690 150631 509
159740 715770 509
492187 549576 470
583492 24660 470
693539 36477 509
722097 767942 468
497912 986401 525
866242 709421 525
403824 982881 525
512827 39477 470
909469 501171 525
886263 645328 525
733342 357158 509
321971 268639 407
944115 546449 525
711466 298064 509
578540 770921 509
79145 85235 320
964930 658620 525
130130 395829 443
205070 829351 509
184270 977032 525
906732 161288 525
924201 303636 525
311454 193968 443
200578 783814 509
846695 939565 507
41531 299961 443
279930 207271 443
219361 323994 443
955779 549828 525
650746 565663 509
744152 612918 509
770897 927503 525
832478 797889 450
116474 199356 383
101471 128495 354
441802 654151 509
541450 753476 509
995851 725033 525
424995 744202 509
509119 929004 525
457277 501060 444
881461 857103 432
386188 487241 449
731692 383538 509
382501 584526 470
588976 625714 447
271581 542661 470
376467 777734 509
587061 572830 434
478202 973568 525
884879 69559 525
119246 214540 383
427743 298850 449
115340 821785 509
221911 703817 509
575943 309059 470
348094 482479 449
586333 391127 470
368933 464153 449
734668 238093 509
251180 715513 509
158121 843865 525
121829 395656 443
544175 416110 470
199101 948418 525
292847 523888 470
263132 512780 470
511241 293439 449
845963 762118 525
170141 687531 509
767226 884905 525
402305 356545 436
446256 94640 449
326576 140292 443
578350 724267 509
549578 272664 470
780826 707342 468
115105 944480 525
369683 879921 525
920981 548455 525
317547 411591 449
351859 586034 470
314618 412225 449
30737 941074 525
668953 334652 509
38541 537696 470
322339 895593 525
58836 960746 525
438018 258256 449
763172 11625 509
446368 234793 449
678293 804046 504
940180 358106 525
654595 139141 509
849667 880905 432
541496 315286 470
236149 679439 509
145688 485212 449
205270 713655 509
998634 507470 525
54241 477817 449
881018 156595 525
985269 46305 525
185506 1258 383
822585 662216 504
643143 113459 509
754877 925500 525
946230 261078 525
944380 504010 525
995060 685900 525
784406 219464 509
944656 34851 525
976071 946440 458
348778 430710 449
479686 276994 449
482009 134047 449
530876 183053 470
123091 224400 386
739261 949281 525
802619 715125 468
700856 332999 509
188329 635856 509
136637 12505 354
87890 948350 525
38890 59322 340
662434 831287 504
170421 424483 449
152873 981491 525
